Analyse ELISA data in R
…
The odd rows show the absorbance at 450 nm and the even rows the absorbance at 620 nm. As expected, the background absorbance at 620 nm is very low.

And these are our plate reader specifications

## # A tibble: 37 x 2
##    V1                    V2         
##    <fct>                 <fct>      
##  1 Software Version      2.05.5     
##  2 Experiment File Path: ""         
##  3 Protocol File Path:   ""         
##  4 Plate Number          Plate 1    
##  5 Date                  2018-08-21 
##  6 Time                  16:23:34.00
##  7 Reader Type:          Synergy H1 
##  8 Reader Serial Number: 271844     
##  9 Reading Type          Reader     
## 10 Procedure Details     ""         
## # ... with 27 more rows
…
